{
    "metadata": {
        "title": "Reduced Complexity Model Intercomparison Project (RCMIP) protocol",
        "version": "v5.1.0",
        "upload_type": "dataset",
        "description": "Reduced Complexity Model Intercomparison Project (RCMIP) protocol. The protocol defines all of RCMIP's experiments as well as RCMIP's submission template. If used, please also cite Nicholls et al., GMD 2020 (https://doi.org/10.5194/gmd-13-5175-2020).",
        "creators": [
            {
                "name": "Zebedee Nicholls",
                "affiliation": "Australian-German Climate & Energy College, University of Melbourne",
                "orcid": "0000-0002-4767-2723"
            },
            {
                "name": "Jared Lewis",
                "affiliation": "Australian-German Climate & Energy College, University of Melbourne",
                "orcid": "0000-0002-8155-8924"
            }
        ],
        "language": "eng",
        "license": "cc-by-sa-4.0",
        "keywords": ["rcmip", "protocol", "climate", "reduced-complexity", "model", "models", "intercomparison", "comparison"]
    }
}
